waveform.vcd
$date
     Jun 19, 2018       14:08:08
$end

$version
              SystemC 2.3.0-ASI --- Aug  3 2012 20:21:21
$end

$timescale
     1 ps
$end

$scope module SystemC $end
$var wire    1  aaa  cs       $end
$var wire    1  aab  clk       $end
$upscope $end
$enddefinitions  $end

$comment
All initial values are dumped below at time 0 sec = 0 timescale units.
$end

$dumpvars
1aaa
0aab
$end

#10000
1aab

#15000
0aaa

#20000
0aab

#30000
1aab

#40000
0aab

#50000
1aab

#60000
0aab

#70000
1aab

#80000
0aab

#90000
1aab

#100000
0aab

#110000
1aab

#120000
0aab

#130000
1aab

#140000
0aab

#150000
1aab

#160000
0aab

#170000
1aab

#175000
1aaa

#180000
0aab

#190000
1aab

#195000
0aaa

#200000
0aab

#210000
1aab

#220000
0aab

#230000
1aab

#240000
0aab

#250000
1aab

#260000
0aab

#270000
1aab

#280000
0aab

#290000
1aab

#300000
0aab

#310000
1aab

#320000
0aab

#330000
1aab

#340000
0aab

#350000
1aab

#360000
0aab

#370000
1aab

#380000
0aab

#390000
1aab

#400000
0aab

#410000
1aab

#420000
0aab

#430000
1aab

#440000
0aab

#450000
1aab

#460000
0aab

#470000
1aab

#480000
0aab

#490000
1aab

#500000
0aab

#510000
1aab

#520000
0aab

#530000
1aab

#540000
0aab

#550000
1aab

#560000
0aab

#570000
1aab

#580000
0aab

#590000
1aab

#600000
0aab

#610000
1aab

#620000
0aab

#630000
1aab

#640000
0aab

#650000
1aab

#660000
0aab

#670000
1aab

#680000
0aab

#690000
1aab

#700000
0aab

#710000
1aab

#720000
0aab

#730000
1aab

#740000
0aab

#750000
1aab

#760000
0aab

#770000
1aab

#780000
0aab

#790000
1aab

#800000
0aab

#810000
1aab

#820000
0aab

#830000
1aab

#840000
0aab

#850000
1aab

#860000
0aab

#870000
1aab

#880000
0aab

#890000
1aab

#900000
0aab

#910000
1aab

#920000
0aab

#930000
1aab

#940000
0aab

#950000
1aab

#960000
0aab

#970000
1aab

#980000
0aab

#990000
1aab

#1000000
0aab

#1010000
1aab

#1020000
0aab

#1030000
1aab

#1040000
0aab

#1050000
1aab

#1060000
0aab

#1070000
1aab

#1080000
0aab

#1090000
1aab

#1100000
0aab

#1110000
1aab

#1120000
0aab

#1130000
1aab

#1140000
0aab

#1150000
1aab

#1160000
0aab

#1170000
1aab

#1180000
0aab

#1190000
1aab

#1200000
0aab

#1210000
1aab

#1220000
0aab

#1230000
1aab

#1240000
0aab

#1245000
1aaa

#1250000
1aab

#1255000
0aaa

#1260000
0aab

#1270000
1aab

#1280000
0aab

#1290000
1aab

#1300000
0aab

#1310000
1aab

#1320000
0aab

#1330000
1aab

#1340000
0aab

#1350000
1aab

#1360000
0aab

#1370000
1aab

#1380000
0aab

#1390000
1aab

#1400000
0aab

#1410000
1aaa
1aab

#1420000
0aab

#1430000
1aab

#1435000
0aaa

#1440000
0aab

#1450000
1aab

#1460000
0aab

#1470000
1aab

#1480000
0aab

#1490000
1aab

#1500000
0aab

#1510000
1aab

#1520000
0aab

#1530000
1aab

#1540000
0aab

#1550000
1aab

#1560000
0aab

#1570000
1aab

#1580000
0aab

#1590000
1aab

#1600000
0aab

#1610000
1aab

#1620000
0aab

#1630000
1aab

#1640000
0aab

#1650000
1aab

#1660000
0aab

#1670000
1aab

#1680000
0aab

#1690000
1aab

#1700000
0aab

#1710000
1aab

#1720000
0aab

#1730000
1aab

#1740000
0aab

#1750000
1aab

#1760000
0aab

#1770000
1aab

#1780000
0aab

#1790000
1aab

#1800000
0aab

#1810000
1aab

#1820000
0aab

#1830000
1aab

#1840000
0aab

#1850000
1aab

#1860000
0aab

#1870000
1aab

#1880000
0aab

#1890000
1aab

#1900000
0aab

#1910000
1aab

#1920000
0aab

#1930000
1aab

#1940000
0aab

#1950000
1aab

#1960000
0aab

#1970000
1aab

#1980000
0aab

#1990000
1aab

#2000000
0aab

#2010000
1aab

#2020000
0aab

#2030000
1aab

#2040000
0aab

#2050000
1aab

#2060000
0aab

#2070000
1aab

#2080000
0aab

#2090000
1aab

#2100000
0aab

#2110000
1aab

#2120000
0aab

#2130000
1aab

#2140000
0aab

#2150000
1aab

#2160000
0aab

#2170000
1aab

#2180000
0aab

#2190000
1aab

#2200000
0aab

#2210000
1aab

#2220000
0aab

#2230000
1aab

#2235000
1aaa

#2240000
0aab

#2250000
1aab

#2255000
0aaa

#2260000
0aab

#2270000
1aab

#2280000
0aab

#2290000
1aab

#2300000
0aab

#2310000
1aab

#2320000
0aab

#2330000
1aab

#2340000
0aab

#2350000
1aab

#2360000
0aab

#2370000
1aab

#2380000
0aab

#2390000
1aab

#2400000
0aab

#2410000
1aab

#2415000
1aaa

#2420000
0aab

#2430000
1aab

#2435000
0aaa

#2440000
0aab

#2450000
1aab

#2460000
0aab

#2470000
1aab

#2480000
0aab

#2490000
1aab

#2500000
0aab

#2510000
1aab

#2520000
0aab

#2530000
1aab

#2540000
0aab

#2550000
1aab

#2560000
0aab

#2570000
1aab

#2580000
0aab

#2590000
1aab

#2600000
0aab

#2610000
1aab

#2620000
0aab

#2630000
1aab

#2640000
0aab

#2650000
1aab

#2660000
0aab

#2670000
1aab

#2680000
0aab

#2690000
1aab

#2700000
0aab

#2710000
1aab

#2720000
0aab

#2730000
1aab

#2740000
0aab

#2750000
1aab

#2755000
1aaa

#2760000
0aab

#2770000
1aab

#2775000
0aaa

